Tidy Tuesday Coffee Ratings
…
Ridge Regression

The ridge regression was shown to not be a good fitting model. So I tested an additional penalized regression while tuning hyper-parameters.

collect_metrics(ridge_fit)

Elastic Net Regression

The elastic net regression had slightly better accuracy than the non-penalized logistic regression but the ROC AUC was exactly the same. While the elastic net regression did not take long computationally due to the small amount of data, this model would not be chosen over the logistic regression.

collect_metrics(elastic_fit)

# A tibble: 300 x 8
         penalty mixture .metric     .estimator  mean     n std_err .config     
           <dbl>   <dbl> <chr>       <chr>      <dbl> <int>   <dbl> <chr>       
 1 0.0000000001        0 accuracy    binary     0.698    10 0.00342 Preprocesso~
 2 0.0000000001        0 mn_log_loss binary     0.589    10 0.00775 Preprocesso~
 3 0.0000000001        0 roc_auc     binary     0.648    10 0.0188  Preprocesso~
 4 0.00000000129       0 accuracy    binary     0.698    10 0.00342 Preprocesso~
 5 0.00000000129       0 mn_log_loss binary     0.589    10 0.00775 Preprocesso~
 6 0.00000000129       0 roc_auc     binary     0.648    10 0.0188  Preprocesso~
 7 0.0000000167        0 accuracy    binary     0.698    10 0.00342 Preprocesso~
 8 0.0000000167        0 mn_log_loss binary     0.589    10 0.00775 Preprocesso~
 9 0.0000000167        0 roc_auc     binary     0.648    10 0.0188  Preprocesso~
10 0.000000215         0 accuracy    binary     0.698    10 0.00342 Preprocesso~
# ... with 290 more rows
# i Use `print(n = ...)` to see more rows
…
! Fold05: preprocessor 1/1: Non-positive values in selected variable., No Box-Cox ...

! Fold06: preprocessor 1/1: Non-positive values in selected variable., No Box-Cox ...

! Fold07: preprocessor 1/1: Non-positive values in selected variable., No Box-Cox ...

! Fold08: preprocessor 1/1: Non-positive values in selected variable., No Box-Cox ...

! Fold09: preprocessor 1/1: Non-positive values in selected variable., No Box-Cox ...

! Fold10: preprocessor 1/1: Non-positive values in selected variable., No Box-Cox ...

collect_metrics(elastic_bal_fit) 

# A tibble: 300 x 8
         penalty mixture .metric     .estimator  mean     n std_err .config     
           <dbl>   <dbl> <chr>       <chr>      <dbl> <int>   <dbl> <chr>       
 1 0.0000000001        0 accuracy    binary     0.839    10 0.00923 Preprocesso~
 2 0.0000000001        0 mn_log_loss binary     0.431    10 0.0153  Preprocesso~
 3 0.0000000001        0 roc_auc     binary     0.840    10 0.0163  Preprocesso~
 4 0.00000000129       0 accuracy    binary     0.839    10 0.00923 Preprocesso~
 5 0.00000000129       0 mn_log_loss binary     0.431    10 0.0153  Preprocesso~
 6 0.00000000129       0 roc_auc     binary     0.840    10 0.0163  Preprocesso~
 7 0.0000000167        0 accuracy    binary     0.839    10 0.00923 Preprocesso~
 8 0.0000000167        0 mn_log_loss binary     0.431    10 0.0153  Preprocesso~
 9 0.0000000167        0 roc_auc     binary     0.840    10 0.0163  Preprocesso~
10 0.000000215         0 accuracy    binary     0.839    10 0.00923 Preprocesso~
# ... with 290 more rows
# i Use `print(n = ...)` to see more rows
…
